DCU,DCU_STATUS,8,32
DCU,DCU_CURRENT,8,33
DCU,CMD_ID_COMMON_RTD_ON,8,16
DCU,CMD_ID_COMMON_RTD_OFF,8,17
DCU,CMD_ID_COMMON_TS,8,18
DCU,CMD_ID_COMMON_GET,8,28
DCU,CMD_ID_COMMON_SET,8,27
DCU,MSG_ID_COMMON_RESET,8,29
DCU,MSG_ID_COMMON_TRAP,8,30
DCU,MSG_ID_COMMON_PARSE_ERROR,8,31
TE,TE_VERBOSE_1,9,33
TE,TE_VERBOSE_2,9,34
TE,TE_LIMIT_ANSWER,9,35
TE,CMD_ID_COMMON_RTD_ON,9,16
TE,CMD_ID_COMMON_RTD_OFF,9,17
TE,CMD_ID_COMMON_TS,9,18
TE,CMD_ID_COMMON_GET,9,28
TE,CMD_ID_COMMON_SET,9,27
TE,MSG_ID_COMMON_RESET,9,29
TE,MSG_ID_COMMON_TRAP,9,30
TE,MSG_ID_COMMON_PARSE_ERROR,9,31
DASH,DASH_STATUS,10,32
DASH,CMD_ID_COMMON_RTD_ON,10,16
DASH,CMD_ID_COMMON_RTD_OFF,10,17
DASH,CMD_ID_COMMON_TS,10,18
DASH,CMD_ID_COMMON_GET,10,28
DASH,CMD_ID_COMMON_SET,10,27
DASH,MSG_ID_COMMON_RESET,10,29
DASH,MSG_ID_COMMON_TRAP,10,30
DASH,MSG_ID_COMMON_PARSE_ERROR,10,31
LOGGER,CMD_ID_COMMON_RTD_ON,11,16
LOGGER,CMD_ID_COMMON_RTD_OFF,11,17
LOGGER,CMD_ID_COMMON_TS,11,18
LOGGER,CMD_ID_COMMON_GET,11,28
LOGGER,CMD_ID_COMMON_SET,11,27
LOGGER,MSG_ID_COMMON_RESET,11,29
LOGGER,MSG_ID_COMMON_TRAP,11,30
LOGGER,MSG_ID_COMMON_PARSE_ERROR,11,31
ARM,ARM_STATUS,13,35
ARM,ARM_LIMS,13,36
ARM,ARM_CONTROL_INFO,13,37
ARM,CMD_ID_COMMON_RTD_ON,13,16
ARM,CMD_ID_COMMON_RTD_OFF,13,17
ARM,CMD_ID_COMMON_TS,13,18
ARM,CMD_ID_COMMON_GET,13,28
ARM,CMD_ID_COMMON_SET,13,27
ARM,MSG_ID_COMMON_RESET,13,29
ARM,MSG_ID_COMMON_TRAP,13,30
ARM,MSG_ID_COMMON_PARSE_ERROR,13,31
BMS_MASTER,MASTER_CELL_TEMPERATURE_INFO,14,56
BMS_MASTER,MASTER_CELL_VOLTAGE_INFO,14,57
BMS_MASTER,MASTER_ENERGY_METER,14,61
BMS_MASTER,MASTER_SC_OPEN,14,62
BMS_MASTER,MASTER_TS_STATE,14,58
BMS_MASTER,MASTER_IMD_ERROR,14,59
BMS_MASTER,MASTER_AMS_ERROR,14,60
BMS_MASTER,MASTER_STATUS,14,63
BMS_MASTER,CMD_ID_COMMON_RTD_ON,14,16
BMS_MASTER,CMD_ID_COMMON_RTD_OFF,14,17
BMS_MASTER,CMD_ID_COMMON_TS,14,18
BMS_MASTER,CMD_ID_COMMON_GET,14,28
BMS_MASTER,CMD_ID_COMMON_SET,14,27
BMS_MASTER,MSG_ID_COMMON_RESET,14,29
BMS_MASTER,MSG_ID_COMMON_TRAP,14,30
BMS_MASTER,MSG_ID_COMMON_PARSE_ERROR,14,31
BMS_VERBOSE,MASTER_CELL_INFO,15,63
BMS_VERBOSE,MASTER_SLAVE_INFO_1,15,62
BMS_VERBOSE,MASTER_SLAVE_INFO_2,15,61
BMS_VERBOSE,MASTER_SLAVE_INFO_3,15,60
BMS_VERBOSE,MASTER_SLAVE_INFO_4,15,59
BMS_VERBOSE,CMD_ID_COMMON_RTD_ON,15,16
BMS_VERBOSE,CMD_ID_COMMON_RTD_OFF,15,17
BMS_VERBOSE,CMD_ID_COMMON_TS,15,18
BMS_VERBOSE,CMD_ID_COMMON_GET,15,28
BMS_VERBOSE,CMD_ID_COMMON_SET,15,27
BMS_VERBOSE,MSG_ID_COMMON_RESET,15,29
BMS_VERBOSE,MSG_ID_COMMON_TRAP,15,30
BMS_VERBOSE,MSG_ID_COMMON_PARSE_ERROR,15,31
IIB,IIB_ERROR,16,33
IIB,IIB_VALUES,16,34
IIB,IIB_STATUS,16,35
IIB,IIB_LIMS,16,36
IIB,CMD_ID_COMMON_RTD_ON,16,16
IIB,CMD_ID_COMMON_RTD_OFF,16,17
IIB,CMD_ID_COMMON_TS,16,18
IIB,CMD_ID_COMMON_GET,16,28
IIB,CMD_ID_COMMON_SET,16,27
IIB,MSG_ID_COMMON_RESET,16,29
IIB,MSG_ID_COMMON_TRAP,16,30
IIB,MSG_ID_COMMON_PARSE_ERROR,16,31
SUPOT_FRONT,SUPOT_POT,18,32
SUPOT_FRONT,CMD_ID_COMMON_RTD_ON,18,16
SUPOT_FRONT,CMD_ID_COMMON_RTD_OFF,18,17
SUPOT_FRONT,CMD_ID_COMMON_TS,18,18
SUPOT_FRONT,CMD_ID_COMMON_GET,18,28
SUPOT_FRONT,CMD_ID_COMMON_SET,18,27
SUPOT_FRONT,MSG_ID_COMMON_RESET,18,29
SUPOT_FRONT,MSG_ID_COMMON_TRAP,18,30
SUPOT_FRONT,MSG_ID_COMMON_PARSE_ERROR,18,31
SUPOT_REAR,SUPOT_POT,19,32
SUPOT_REAR,CMD_ID_COMMON_RTD_ON,19,16
SUPOT_REAR,CMD_ID_COMMON_RTD_OFF,19,17
SUPOT_REAR,CMD_ID_COMMON_TS,19,18
SUPOT_REAR,CMD_ID_COMMON_GET,19,28
SUPOT_REAR,CMD_ID_COMMON_SET,19,27
SUPOT_REAR,MSG_ID_COMMON_RESET,19,29
SUPOT_REAR,MSG_ID_COMMON_TRAP,19,30
SUPOT_REAR,MSG_ID_COMMON_PARSE_ERROR,19,31
AHRS,AHRS_HEALTH_TEMPERATURE,20,32
AHRS,AHRS_GYRO_Z_ACCEL_X,20,33
AHRS,AHRS_GYRO_X_Y,20,34
AHRS,AHRS_ACCEL_Y_Z,20,35
AHRS,AHRS_MAG,20,36
AHRS,AHRS_QUAT,20,37
AHRS,AHRS_EULER_ANGLE,20,38
AHRS,AHRS_EULER_RATE,20,39
AHRS,CMD_ID_COMMON_RTD_ON,20,16
AHRS,CMD_ID_COMMON_RTD_OFF,20,17
AHRS,CMD_ID_COMMON_TS,20,18
AHRS,CMD_ID_COMMON_GET,20,28
AHRS,CMD_ID_COMMON_SET,20,27
AHRS,MSG_ID_COMMON_RESET,20,29
AHRS,MSG_ID_COMMON_TRAP,20,30
AHRS,MSG_ID_COMMON_PARSE_ERROR,20,31
IMU,IMU_STATUS,21,32
IMU,IMU_ACCEL,21,33
IMU,IMU_GYRO,21,34
IMU,CMD_ID_COMMON_RTD_ON,21,16
IMU,CMD_ID_COMMON_RTD_OFF,21,17
IMU,CMD_ID_COMMON_TS,21,18
IMU,CMD_ID_COMMON_GET,21,28
IMU,CMD_ID_COMMON_SET,21,27
IMU,MSG_ID_COMMON_RESET,21,29
IMU,MSG_ID_COMMON_TRAP,21,30
IMU,MSG_ID_COMMON_PARSE_ERROR,21,31
GPS,GPS_CLOCK_SYNC,22,32
GPS,GPS_VELOCITY,22,33
GPS,GPS_LATITUDE,22,34
GPS,GPS_LONGITUDE,22,35
GPS,CMD_ID_COMMON_RTD_ON,22,16
GPS,CMD_ID_COMMON_RTD_OFF,22,17
GPS,CMD_ID_COMMON_TS,22,18
GPS,CMD_ID_COMMON_GET,22,28
GPS,CMD_ID_COMMON_SET,22,27
GPS,MSG_ID_COMMON_RESET,22,29
GPS,MSG_ID_COMMON_TRAP,22,30
GPS,MSG_ID_COMMON_PARSE_ERROR,22,31
CCU,CCU_RESET,23,40
CCU,CCU_PWM_FANS,23,50
CCU,CCU_PWM_PUMP,23,51
CCU,CMD_ID_COMMON_RTD_ON,23,16
CCU,CMD_ID_COMMON_RTD_OFF,23,17
CCU,CMD_ID_COMMON_TS,23,18
CCU,CMD_ID_COMMON_GET,23,28
CCU,CMD_ID_COMMON_SET,23,27
CCU,MSG_ID_COMMON_RESET,23,29
CCU,MSG_ID_COMMON_TRAP,23,30
CCU,MSG_ID_COMMON_PARSE_ERROR,23,31
STEER,STEER_SIG,25,33
STEER,CMD_ID_COMMON_RTD_ON,25,16
STEER,CMD_ID_COMMON_RTD_OFF,25,17
STEER,CMD_ID_COMMON_TS,25,18
STEER,CMD_ID_COMMON_GET,25,28
STEER,CMD_ID_COMMON_SET,25,27
STEER,MSG_ID_COMMON_RESET,25,29
STEER,MSG_ID_COMMON_TRAP,25,30
STEER,MSG_ID_COMMON_PARSE_ERROR,25,31
WATER_TEMP,WATER_TEMP_TEMPERATURE1,30,57
WATER_TEMP,WATER_TEMP_TEMPERATURE2,30,56
WATER_TEMP,WATER_TEMP_FLOW_RATE,30,54
WATER_TEMP,CMD_ID_COMMON_RTD_ON,30,16
WATER_TEMP,CMD_ID_COMMON_RTD_OFF,30,17
WATER_TEMP,CMD_ID_COMMON_TS,30,18
WATER_TEMP,CMD_ID_COMMON_GET,30,28
WATER_TEMP,CMD_ID_COMMON_SET,30,27
WATER_TEMP,MSG_ID_COMMON_RESET,30,29
WATER_TEMP,MSG_ID_COMMON_TRAP,30,30
WATER_TEMP,MSG_ID_COMMON_PARSE_ERROR,30,31
INTERFACE,INTERFACE_INVERTERS,31,41
INTERFACE,INTERFACE_ARM1,31,45
INTERFACE,INTERFACE_TE_LIMITS_REQUEST,31,46
INTERFACE,CMD_ID_COMMON_RTD_ON,31,16
INTERFACE,CMD_ID_COMMON_RTD_OFF,31,17
INTERFACE,CMD_ID_COMMON_TS,31,18
INTERFACE,CMD_ID_COMMON_GET,31,28
INTERFACE,CMD_ID_COMMON_SET,31,27
INTERFACE,MSG_ID_COMMON_RESET,31,29
INTERFACE,MSG_ID_COMMON_TRAP,31,30
INTERFACE,MSG_ID_COMMON_PARSE_ERROR,31,31
